{
  "$schema": "http://json-schema.org/draft-04/schema#",
  "type": "object",
  "properties": {
    "response": {
      "type": "object",
      "additionalProperties": false,
      "properties": {
        "id": {
          "type": "integer"
        },
        "values": {
          "type": "object"
        },
        "organization_id": {
          "type": "null"
        },
        "machine_id": {
          "type": "integer"
        },
        "security_container_id": {
          "type": "integer"
        },
        "args": {
          "type": "array"
        },
        "enabled_outside_of_requirement": {
          "type": "boolean"
        }
      },
      "required": [
        "id",
        "values",
        "organization_id",
        "machine_id",
        "security_container_id",
        "args",
        "enabled_outside_of_requirement"
      ]
    }
  },
  "required": [
    "response"
  ]
}
