{
  "$schema": "http://json-schema.org/draft-04/schema#",
  "type": "object",
  "properties": {
    "response": {
      "type": "object",
      "additionalProperties": false,
      "properties": {
        "id": {
          "type": "integer"
        },
        "organization": {
          "id": {
            "type": "integer"
          },
          "slug": {
            "type": "string"
          },
          "uid": {
            "type": "string"
          }
        },
        "security_test_repository_id": {
          "type": "integer"
        },

        "created_at": {
          "type": "string"
        },
        "updated_at": {
          "type": "string"
        }
      },
      "required": [
        "id",
        "organization",
        "security_test_repository_id",
        "created_at",
        "updated_at"
      ]
    }
  },
  "required": [
    "response"
  ]
}
