{
  "$schema": "http://json-schema.org/draft-04/schema#",
  "type": "object",
  "properties": {
    "response": {
      "type": "array",
      "items": {
        "$ref": "result_export_queue.json#/properties/response"
      }
    },
    "required": [
      "response"
    ]
  }
}
